<svg width="120" height="120" viewBox="0 0 120 120" fill="none" xmlns="http://www.w3.org/2000/svg">
<path d="M30 55.6751C35.1777 55.6751 39.375 51.4777 39.375 46.3001C39.375 41.1224 35.1777 36.925 30 36.925C24.8223 36.925 20.625 41.1224 20.625 46.3001C20.625 51.4777 24.8223 55.6751 30 55.6751Z" fill="url(#paint0_linear)"/>
<path d="M28.9 59.5C26.066 59.8511 23.4618 61.2376 21.5881 63.3928C19.7145 65.5479 18.7037 68.3196 18.75 71.175V108.175C18.75 109.17 19.1451 110.123 19.8484 110.827C20.5516 111.53 21.5055 111.925 22.5 111.925C23.4946 111.925 24.4484 111.53 25.1517 110.827C25.8549 110.123 26.25 109.17 26.25 108.175V96.925C26.25 95.9304 26.6451 94.9766 27.3484 94.2733C28.0516 93.57 29.0055 93.175 30 93.175C30.9946 93.175 31.9484 93.57 32.6517 94.2733C33.3549 94.9766 33.75 95.9304 33.75 96.925V108.175C33.75 109.17 34.1451 110.123 34.8484 110.827C35.5516 111.53 36.5055 111.925 37.5 111.925C38.4946 111.925 39.4484 111.53 40.1517 110.827C40.8549 110.123 41.25 109.17 41.25 108.175V70.675C41.2471 69.1066 40.9163 67.5562 40.2788 66.1232C39.6413 64.6903 38.7112 63.4065 37.5483 62.3542C36.3853 61.3019 35.0152 60.5044 33.5259 60.0128C32.0365 59.5213 30.4609 59.3466 28.9 59.5Z" fill="url(#paint1_linear)"/>
<path d="M22.2 62.7749C23.0502 64.0748 24.2107 65.1424 25.5769 65.8813C26.9431 66.6202 28.4718 67.0071 30.025 67.0071C31.5782 67.0071 33.1069 66.6202 34.4731 65.8813C35.8393 65.1424 36.9999 64.0748 37.85 62.7749C36.6819 61.6223 35.2748 60.7405 33.7282 60.1919C32.1816 59.6432 30.5333 59.4411 28.9 59.5999C26.3614 59.8324 23.9874 60.9573 22.2 62.7749Z" fill="url(#paint2_linear)"/>
<path d="M11.25 74.425C13.3211 74.425 15 72.7461 15 70.675C15 68.604 13.3211 66.925 11.25 66.925C9.17893 66.925 7.5 68.604 7.5 70.675C7.5 72.7461 9.17893 74.425 11.25 74.425Z" fill="url(#paint3_linear)"/>
<path d="M48.75 74.425C50.8211 74.425 52.5 72.7461 52.5 70.675C52.5 68.604 50.8211 66.925 48.75 66.925C46.6789 66.925 45 68.604 45 70.675C45 72.7461 46.6789 74.425 48.75 74.425Z" fill="url(#paint4_linear)"/>
<path d="M54.15 81.925H62.075C62.7884 81.9217 63.4953 82.0597 64.155 82.3312C64.8147 82.6027 65.4141 83.0021 65.9185 83.5065C66.4229 84.011 66.8224 84.6103 67.0938 85.27C67.3653 85.9297 67.5033 86.6366 67.5 87.35V111.95H48.75V87.35C48.7467 86.6387 48.884 85.9339 49.1539 85.2758C49.4238 84.6178 49.821 84.0195 50.3228 83.5154C50.8245 83.0113 51.421 82.6113 52.0777 82.3384C52.7345 82.0655 53.4388 81.925 54.15 81.925Z" fill="url(#paint5_linear)"/>
<path d="M76.65 59.425H84.575C85.2884 59.4217 85.9953 59.5597 86.655 59.8312C87.3147 60.1027 87.914 60.5021 88.4185 61.0065C88.9229 61.511 89.3224 62.1103 89.5938 62.77C89.8653 63.4297 90.0033 64.1366 90 64.85V111.925H71.25V64.85C71.2467 64.1387 71.384 63.4339 71.6539 62.7758C71.9238 62.1178 72.321 61.5195 72.8228 61.0154C73.3245 60.5113 73.921 60.1113 74.5777 59.8384C75.2345 59.5655 75.9388 59.425 76.65 59.425Z" fill="#E94867"/>
<path d="M99.15 36.925H107.075C107.788 36.9217 108.495 37.0597 109.155 37.3312C109.815 37.6027 110.414 38.0021 110.918 38.5065C111.423 39.011 111.822 39.6103 112.094 40.27C112.365 40.9297 112.503 41.6366 112.5 42.35V111.925H93.75V42.35C93.7467 41.6387 93.884 40.9339 94.1539 40.2758C94.4238 39.6178 94.821 39.0195 95.3228 38.5154C95.8246 38.0113 96.421 37.6113 97.0777 37.3384C97.7345 37.0655 98.4388 36.925 99.15 36.925Z" fill="url(#paint6_linear)"/>
<path d="M111.6 19.9999L104.225 8.74991C104.104 8.56944 103.94 8.42156 103.748 8.31931C103.556 8.21706 103.342 8.16357 103.125 8.16357C102.908 8.16357 102.693 8.21706 102.502 8.31931C102.31 8.42156 102.146 8.56944 102.025 8.74991L94.6499 19.9999C94.5261 20.1987 94.4573 20.4268 94.4503 20.6609C94.4434 20.895 94.4987 21.1268 94.6105 21.3326C94.7223 21.5384 94.8866 21.7109 95.0868 21.8325C95.2869 21.9541 95.5157 22.0205 95.7499 22.0249H98.2499C98.5218 22.0249 98.7825 22.1329 98.9747 22.3251C99.1669 22.5174 99.2749 22.7781 99.2749 23.0499V25.7749C99.2749 26.7695 99.67 27.7233 100.373 28.4266C101.077 29.1298 102.03 29.5249 103.025 29.5249C104.019 29.5249 104.973 29.1298 105.677 28.4266C106.38 27.7233 106.775 26.7695 106.775 25.7749V22.9499C106.775 22.6781 106.883 22.4173 107.075 22.2251C107.267 22.0329 107.528 21.9249 107.8 21.9249H110.3C110.536 21.9467 110.774 21.9045 110.989 21.8029C111.203 21.7012 111.387 21.5438 111.519 21.347C111.652 21.1503 111.73 20.9215 111.744 20.6845C111.758 20.4475 111.708 20.2111 111.6 19.9999Z" fill="#E94867"/>
<path d="M80.6249 25.575H50.6249C50.1409 25.575 49.6767 25.3827 49.3344 25.0405C48.9922 24.6982 48.7999 24.234 48.7999 23.75C48.7999 23.266 48.9922 22.8018 49.3344 22.4595C49.6767 22.1173 50.1409 21.925 50.6249 21.925H80.6249C80.8687 21.9183 81.1114 21.9606 81.3386 22.0493C81.5659 22.138 81.773 22.2714 81.9478 22.4415C82.1226 22.6117 82.2615 22.8151 82.3563 23.0399C82.4512 23.2646 82.5 23.5061 82.4999 23.75C82.5 23.9939 82.4512 24.2354 82.3563 24.4601C82.2615 24.6849 82.1226 24.8883 81.9478 25.0585C81.773 25.2286 81.5659 25.362 81.3386 25.4507C81.1114 25.5394 80.8687 25.5817 80.6249 25.575Z" fill="url(#paint7_linear)"/>
<path d="M80.625 36.825H50.625C50.3812 36.8317 50.1385 36.7894 49.9112 36.7007C49.684 36.612 49.4769 36.4786 49.3021 36.3085C49.1273 36.1383 48.9884 35.9349 48.8935 35.7101C48.7987 35.4854 48.7499 35.2439 48.75 35C48.75 34.516 48.9423 34.0518 49.2845 33.7095C49.6268 33.3673 50.091 33.175 50.575 33.175H80.575C80.8229 33.1614 81.0711 33.1985 81.3041 33.2841C81.5372 33.3697 81.7504 33.502 81.9306 33.6728C82.1108 33.8437 82.2543 34.0495 82.3522 34.2777C82.4501 34.5059 82.5004 34.7517 82.5 35C82.5001 35.2439 82.4513 35.4854 82.3564 35.7101C82.2616 35.9349 82.1227 36.1383 81.9479 36.3085C81.7731 36.4786 81.566 36.612 81.3388 36.7007C81.1115 36.7894 80.8688 36.8317 80.625 36.825Z" fill="url(#paint8_linear)"/>
<path d="M58.1249 48.0751H50.6249C50.1409 48.0751 49.6767 47.8828 49.3344 47.5405C48.9922 47.1983 48.7999 46.7341 48.7999 46.25C48.7999 45.766 48.9922 45.3018 49.3344 44.9596C49.6767 44.6173 50.1409 44.425 50.6249 44.425H58.1249C58.6089 44.425 59.0731 44.6173 59.4154 44.9596C59.7576 45.3018 59.9499 45.766 59.9499 46.25C59.9499 46.7341 59.7576 47.1983 59.4154 47.5405C59.0731 47.8828 58.6089 48.0751 58.1249 48.0751Z" fill="url(#paint9_linear)"/>
<path d="M65.625 48.0751C65.141 48.0751 64.6768 47.8828 64.3345 47.5405C63.9923 47.1983 63.8 46.7341 63.8 46.25C63.8 45.766 63.9923 45.3018 64.3345 44.9596C64.6768 44.6173 65.141 44.425 65.625 44.425C66.109 44.425 66.5732 44.6173 66.9155 44.9596C67.2577 45.3018 67.45 45.766 67.45 46.25C67.45 46.7341 67.2577 47.1983 66.9155 47.5405C66.5732 47.8828 66.109 48.0751 65.625 48.0751Z" fill="url(#paint10_linear)"/>
<path d="M73.125 48.0751C72.641 48.0751 72.1768 47.8828 71.8345 47.5405C71.4923 47.1983 71.3 46.7341 71.3 46.25C71.3 45.766 71.4923 45.3018 71.8345 44.9596C72.1768 44.6173 72.641 44.425 73.125 44.425C73.609 44.425 74.0732 44.6173 74.4155 44.9596C74.7577 45.3018 74.95 45.766 74.95 46.25C74.95 46.7341 74.7577 47.1983 74.4155 47.5405C74.0732 47.8828 73.609 48.0751 73.125 48.0751Z" fill="url(#paint11_linear)"/>
<path d="M80.625 48.0751C80.141 48.0751 79.6768 47.8828 79.3345 47.5405C78.9923 47.1983 78.8 46.7341 78.8 46.25C78.8 45.766 78.9923 45.3018 79.3345 44.9596C79.6768 44.6173 80.141 44.425 80.625 44.425C81.109 44.425 81.5732 44.6173 81.9155 44.9596C82.2577 45.3018 82.45 45.766 82.45 46.25C82.45 46.7341 82.2577 47.1983 81.9155 47.5405C81.5732 47.8828 81.109 48.0751 80.625 48.0751Z" fill="url(#paint12_linear)"/>
<defs>
<linearGradient id="paint0_linear" x1="30" y1="164.025" x2="30" y2="-44.825" gradientUnits="userSpaceOnUse">
<stop stop-color="#27E9DE"/>
<stop offset="0.52" stop-color="#03A4EC"/>
<stop offset="1" stop-color="#2547A8"/>
</linearGradient>
<linearGradient id="paint1_linear" x1="18.7485" y1="3502.59" x2="1366.51" y2="-520.444" gradientUnits="userSpaceOnUse">
<stop stop-color="#27E9DE"/>
<stop offset="0.52" stop-color="#03A4EC"/>
<stop offset="1" stop-color="#2547A8"/>
</linearGradient>
<linearGradient id="paint2_linear" x1="210.157" y1="372.558" x2="210.157" y2="166.072" gradientUnits="userSpaceOnUse">
<stop stop-color="#27E9DE"/>
<stop offset="0.52" stop-color="#03A4EC"/>
<stop offset="1" stop-color="#2547A8"/>
</linearGradient>
<linearGradient id="paint3_linear" x1="41.25" y1="559" x2="41.25" y2="-67.55" gradientUnits="userSpaceOnUse">
<stop stop-color="#27E9DE"/>
<stop offset="0.52" stop-color="#03A4EC"/>
<stop offset="1" stop-color="#2547A8"/>
</linearGradient>
<linearGradient id="paint4_linear" x1="191.25" y1="559" x2="191.25" y2="-67.55" gradientUnits="userSpaceOnUse">
<stop stop-color="#27E9DE"/>
<stop offset="0.52" stop-color="#03A4EC"/>
<stop offset="1" stop-color="#2547A8"/>
</linearGradient>
<linearGradient id="paint5_linear" x1="58.125" y1="141.7" x2="58.125" y2="22.3501" gradientUnits="userSpaceOnUse">
<stop stop-color="#273A9B"/>
<stop offset="0.56" stop-color="#202F65"/>
<stop offset="1" stop-color="#021E2F"/>
</linearGradient>
<linearGradient id="paint6_linear" x1="867.192" y1="5627.43" x2="867.192" y2="-3323.08" gradientUnits="userSpaceOnUse">
<stop stop-color="#27E9DE"/>
<stop offset="0.52" stop-color="#03A4EC"/>
<stop offset="1" stop-color="#2547A8"/>
</linearGradient>
<linearGradient id="paint7_linear" x1="94.8999" y1="67.95" x2="38.2248" y2="-17.55" gradientUnits="userSpaceOnUse">
<stop stop-color="white"/>
<stop offset="0.52" stop-color="#CCE2E6"/>
<stop offset="1" stop-color="#8FA1BB"/>
</linearGradient>
<linearGradient id="paint8_linear" x1="1276.58" y1="140.181" x2="1263.73" y2="-38.7928" gradientUnits="userSpaceOnUse">
<stop stop-color="white"/>
<stop offset="0.52" stop-color="#CCE2E6"/>
<stop offset="1" stop-color="#8FA1BB"/>
</linearGradient>
<linearGradient id="paint9_linear" x1="369.028" y1="150.421" x2="341.944" y2="25.5933" gradientUnits="userSpaceOnUse">
<stop stop-color="white"/>
<stop offset="0.52" stop-color="#CCE2E6"/>
<stop offset="1" stop-color="#8FA1BB"/>
</linearGradient>
<linearGradient id="paint10_linear" x1="197.864" y1="169.803" x2="89.6053" y2="6.46514" gradientUnits="userSpaceOnUse">
<stop stop-color="white"/>
<stop offset="0.52" stop-color="#CCE2E6"/>
<stop offset="1" stop-color="#8FA1BB"/>
</linearGradient>
<linearGradient id="paint11_linear" x1="212.993" y1="164.729" x2="104.697" y2="1.42824" gradientUnits="userSpaceOnUse">
<stop stop-color="white"/>
<stop offset="0.52" stop-color="#CCE2E6"/>
<stop offset="1" stop-color="#8FA1BB"/>
</linearGradient>
<linearGradient id="paint12_linear" x1="228.085" y1="159.692" x2="119.826" y2="-3.64547" gradientUnits="userSpaceOnUse">
<stop stop-color="white"/>
<stop offset="0.52" stop-color="#CCE2E6"/>
<stop offset="1" stop-color="#8FA1BB"/>
</linearGradient>
</defs>
</svg>
