<svg width="300" height="300" viewBox="0 0 300 300" fill="none" xmlns="http://www.w3.org/2000/svg">
<path d="M262.062 28.125H37.9375C27.3405 28.125 18.75 36.7155 18.75 47.3125V252.688C18.75 263.284 27.3405 271.875 37.9375 271.875H262.062C272.659 271.875 281.25 263.284 281.25 252.688V47.3125C281.25 36.7155 272.659 28.125 262.062 28.125Z" fill="url(#paint0_linear)"/>
<path d="M262.062 28.125H37.9375C32.8487 28.125 27.9682 30.1465 24.3699 33.7449C20.7715 37.3432 18.75 42.2237 18.75 47.3125V65.625H281.25V47.3125C281.25 42.2237 279.228 37.3432 275.63 33.7449C272.032 30.1465 267.151 28.125 262.062 28.125Z" fill="url(#paint1_linear)"/>
<path d="M281.25 65.625H18.75V84.375H281.25V65.625Z" fill="url(#paint2_linear)"/>
<path d="M51.9374 51.4377C54.4572 51.4377 56.4999 49.395 56.4999 46.8752C56.4999 44.3554 54.4572 42.3127 51.9374 42.3127C49.4176 42.3127 47.3749 44.3554 47.3749 46.8752C47.3749 49.395 49.4176 51.4377 51.9374 51.4377Z" fill="url(#paint3_linear)"/>
<path d="M74.9999 51.4377C77.5197 51.4377 79.5624 49.395 79.5624 46.8752C79.5624 44.3554 77.5197 42.3127 74.9999 42.3127C72.4801 42.3127 70.4374 44.3554 70.4374 46.8752C70.4374 49.395 72.4801 51.4377 74.9999 51.4377Z" fill="url(#paint4_linear)"/>
<path d="M98.0624 51.4377C100.582 51.4377 102.625 49.395 102.625 46.8752C102.625 44.3554 100.582 42.3127 98.0624 42.3127C95.5426 42.3127 93.4999 44.3554 93.4999 46.8752C93.4999 49.395 95.5426 51.4377 98.0624 51.4377Z" fill="url(#paint5_linear)"/>
<path d="M93.3476 211.568C94.6971 214.546 97.1446 216.886 100.178 218.098C103.211 219.31 106.594 219.3 109.62 218.07C122.24 212.674 135.82 209.892 149.542 209.892C163.264 209.892 176.844 212.674 189.464 218.07C192.495 219.297 195.883 219.301 198.917 218.081C201.951 216.861 204.395 214.511 205.737 211.525L236.679 153.129C237.702 151.13 238.145 148.884 237.958 146.645C237.772 144.406 236.964 142.265 235.625 140.462C225.679 126.896 212.731 115.822 197.796 108.108C182.86 100.394 166.344 96.2498 149.542 96C132.708 96.2482 116.162 100.404 101.203 108.141C86.2437 115.878 73.2805 126.985 63.3323 140.589C62.0024 142.397 61.2065 144.544 61.035 146.783C60.8636 149.023 61.3236 151.266 62.3627 153.256L93.3476 211.568Z" fill="url(#paint6_linear)"/>
<path d="M93.345 198.353C94.9534 201.082 97.4614 203.158 100.433 204.219C103.405 205.28 106.652 205.26 109.61 204.161C135.332 194.42 163.697 194.42 189.419 204.161C192.382 205.256 195.633 205.27 198.605 204.201C201.577 203.132 204.082 201.047 205.684 198.311L236.655 145.954C237.691 144.182 238.147 142.128 237.958 140.081C237.769 138.034 236.945 136.099 235.602 134.55C224.903 122.115 211.667 112.146 196.794 105.321C181.921 98.4962 165.761 94.976 149.414 95.0001C133.068 95.0243 116.918 98.5922 102.065 105.461C87.2126 112.33 74.0053 122.338 63.343 134.804C62.0168 136.356 61.2094 138.288 61.0355 140.328C60.8616 142.367 61.3298 144.409 62.3739 146.166L93.345 198.353Z" fill="url(#paint7_linear)"/>
<path d="M118 201C126.148 198.638 134.535 197.224 143 196.785V183.801L118 129V201Z" fill="url(#paint8_linear)"/>
<path d="M151.324 197.128L120.962 128.447C120.806 127.929 120.452 127.495 119.978 127.24C119.504 126.985 118.949 126.931 118.435 127.088C117.922 127.246 117.491 127.603 117.238 128.081C116.986 128.558 116.931 129.117 117.088 129.635L129.005 201.373C130.683 209.752 131.109 218.337 130.268 226.842C129.943 229.713 130.289 232.621 131.279 235.332C132.773 239.563 135.701 243.125 139.546 245.393C143.391 247.66 147.907 248.485 152.298 247.724C156.688 246.963 160.67 244.663 163.543 241.231C166.416 237.799 167.994 233.455 168 228.965C168.005 224.764 166.611 220.684 164.042 217.376C159.005 211.171 154.735 204.372 151.324 197.128Z" fill="url(#paint9_linear)"/>
<path d="M149.5 238C154.747 238 159 233.747 159 228.5C159 223.253 154.747 219 149.5 219C144.253 219 140 223.253 140 228.5C140 233.747 144.253 238 149.5 238Z" fill="url(#paint10_linear)"/>
<path d="M162.174 128.617C162.718 127.42 163 126.121 163 124.808C163 123.495 162.718 122.197 162.174 121C160.969 121.532 159.891 122.311 159.012 123.287C158.132 124.264 157.472 125.414 157.074 126.663C156.921 127.303 157.007 127.976 157.317 128.557C157.627 129.139 158.14 129.588 158.759 129.822C159.378 130.057 160.061 130.059 160.682 129.83C161.303 129.601 161.819 129.155 162.134 128.577L162.174 128.617Z" fill="url(#paint11_linear)"/>
<path d="M180.185 145.617C180.722 144.42 181 143.121 181 141.808C181 140.495 180.722 139.197 180.185 138C178.981 138.522 177.902 139.298 177.02 140.275C176.138 141.251 175.474 142.406 175.073 143.663C174.922 144.303 175.007 144.976 175.313 145.557C175.619 146.139 176.125 146.588 176.735 146.822C177.346 147.057 178.021 147.059 178.634 146.83C179.246 146.601 179.755 146.155 180.066 145.577L180.185 145.617Z" fill="url(#paint12_linear)"/>
<path d="M201.196 135.463C201.726 134.133 202 132.691 202 131.231C202 129.772 201.726 128.33 201.196 127C199.993 127.57 198.912 128.427 198.028 129.513C197.144 130.599 196.477 131.888 196.072 133.292C195.923 134.003 196.007 134.751 196.309 135.397C196.611 136.043 197.11 136.542 197.713 136.803C198.316 137.063 198.982 137.066 199.586 136.811C200.191 136.557 200.693 136.062 201 135.418L201.196 135.463Z" fill="url(#paint13_linear)"/>
<path d="M161.174 166.617C161.718 165.42 162 164.121 162 162.808C162 161.495 161.718 160.197 161.174 159C159.969 159.532 158.891 160.311 158.012 161.287C157.132 162.264 156.472 163.414 156.074 164.663C155.921 165.303 156.007 165.976 156.317 166.557C156.627 167.139 157.14 167.588 157.759 167.822C158.378 168.057 159.061 168.059 159.682 167.83C160.303 167.601 160.819 167.155 161.134 166.577L161.174 166.617Z" fill="url(#paint14_linear)"/>
<path d="M180.185 181.463C180.722 180.133 181 178.691 181 177.231C181 175.772 180.722 174.33 180.185 173C178.981 173.58 177.902 174.442 177.02 175.527C176.138 176.613 175.474 177.896 175.073 179.292C174.922 180.003 175.007 180.751 175.313 181.397C175.619 182.043 176.125 182.542 176.735 182.803C177.346 183.063 178.021 183.066 178.634 182.811C179.246 182.557 179.755 182.062 180.066 181.418L180.185 181.463Z" fill="url(#paint15_linear)"/>
<path d="M196.174 163.463C196.718 162.133 197 160.691 197 159.231C197 157.772 196.718 156.33 196.174 155C194.969 155.591 193.891 156.457 193.012 157.542C192.132 158.626 191.472 159.904 191.074 161.292C190.921 162.003 191.007 162.751 191.317 163.397C191.627 164.043 192.14 164.542 192.759 164.803C193.378 165.063 194.061 165.066 194.682 164.811C195.303 164.557 195.819 164.062 196.134 163.418L196.174 163.463Z" fill="url(#paint16_linear)"/>
<defs>
<linearGradient id="paint0_linear" x1="150" y1="-146.875" x2="150" y2="444.25" gradientUnits="userSpaceOnUse">
<stop stop-color="#27E9DE"/>
<stop offset="0.52" stop-color="#03A4EC"/>
<stop offset="1" stop-color="#2547A8"/>
</linearGradient>
<linearGradient id="paint1_linear" x1="150" y1="342.688" x2="150" y2="-396.063" gradientUnits="userSpaceOnUse">
<stop stop-color="#273A9B"/>
<stop offset="0.56" stop-color="#202F65"/>
<stop offset="1" stop-color="#021E2F"/>
</linearGradient>
<linearGradient id="paint2_linear" x1="18.7501" y1="515.625" x2="99.7552" y2="-398.248" gradientUnits="userSpaceOnUse">
<stop stop-color="#27E9DE"/>
<stop offset="0.52" stop-color="#03A4EC"/>
<stop offset="1" stop-color="#2547A8"/>
</linearGradient>
<linearGradient id="paint3_linear" x1="51.9374" y1="80.0627" x2="51.9374" y2="-32.8748" gradientUnits="userSpaceOnUse">
<stop stop-color="#F3C57A"/>
<stop offset="0.49" stop-color="#F39369"/>
<stop offset="1" stop-color="#E94867"/>
</linearGradient>
<linearGradient id="paint4_linear" x1="179.937" y1="159.204" x2="179.937" y2="-5.68475" gradientUnits="userSpaceOnUse">
<stop stop-color="#27E9DE"/>
<stop offset="0.52" stop-color="#03A4EC"/>
<stop offset="1" stop-color="#2547A8"/>
</linearGradient>
<linearGradient id="paint5_linear" x1="98.0624" y1="80.0627" x2="98.0624" y2="-32.8748" gradientUnits="userSpaceOnUse">
<stop stop-color="white"/>
<stop offset="0.52" stop-color="#CCE2E6"/>
<stop offset="1" stop-color="#8FA1BB"/>
</linearGradient>
<linearGradient id="paint6_linear" x1="149.542" y1="257.001" x2="149.542" y2="46.8932" gradientUnits="userSpaceOnUse">
<stop stop-color="white"/>
<stop offset="0.52" stop-color="#CCE2E6"/>
<stop offset="1" stop-color="#8FA1BB"/>
</linearGradient>
<linearGradient id="paint7_linear" x1="149.515" y1="282.337" x2="149.515" y2="68.2449" gradientUnits="userSpaceOnUse">
<stop stop-color="#F3C57A"/>
<stop offset="0.49" stop-color="#F39369"/>
<stop offset="1" stop-color="#E94867"/>
</linearGradient>
<linearGradient id="paint8_linear" x1="605.5" y1="4065.96" x2="605.5" y2="732.36" gradientUnits="userSpaceOnUse">
<stop stop-color="#F3C57A"/>
<stop offset="0.49" stop-color="#F39369"/>
<stop offset="1" stop-color="#E94867"/>
</linearGradient>
<linearGradient id="paint9_linear" x1="142.523" y1="311.739" x2="142.523" y2="134.899" gradientUnits="userSpaceOnUse">
<stop stop-color="#273A9B"/>
<stop offset="0.56" stop-color="#202F65"/>
<stop offset="1" stop-color="#021E2F"/>
</linearGradient>
<linearGradient id="paint10_linear" x1="596" y1="1154.75" x2="596" y2="799.45" gradientUnits="userSpaceOnUse">
<stop stop-color="#273A9B"/>
<stop offset="0.56" stop-color="#202F65"/>
<stop offset="1" stop-color="#021E2F"/>
</linearGradient>
<linearGradient id="paint11_linear" x1="316.48" y1="218.92" x2="316.48" y2="148.09" gradientUnits="userSpaceOnUse">
<stop stop-color="#F3C57A"/>
<stop offset="0.49" stop-color="#F39369"/>
<stop offset="1" stop-color="#E94867"/>
</linearGradient>
<linearGradient id="paint12_linear" x1="359.44" y1="235.92" x2="359.44" y2="165.09" gradientUnits="userSpaceOnUse">
<stop stop-color="#F3C57A"/>
<stop offset="0.49" stop-color="#F39369"/>
<stop offset="1" stop-color="#E94867"/>
</linearGradient>
<linearGradient id="paint13_linear" x1="410.5" y1="235.8" x2="410.5" y2="157.1" gradientUnits="userSpaceOnUse">
<stop stop-color="#F3C57A"/>
<stop offset="0.49" stop-color="#F39369"/>
<stop offset="1" stop-color="#E94867"/>
</linearGradient>
<linearGradient id="paint14_linear" x1="313.56" y1="256.92" x2="313.56" y2="186.09" gradientUnits="userSpaceOnUse">
<stop stop-color="#F3C57A"/>
<stop offset="0.49" stop-color="#F39369"/>
<stop offset="1" stop-color="#E94867"/>
</linearGradient>
<linearGradient id="paint15_linear" x1="359.44" y1="281.8" x2="359.44" y2="203.1" gradientUnits="userSpaceOnUse">
<stop stop-color="#F3C57A"/>
<stop offset="0.49" stop-color="#F39369"/>
<stop offset="1" stop-color="#E94867"/>
</linearGradient>
<linearGradient id="paint16_linear" x1="398" y1="263.7" x2="398" y2="185.1" gradientUnits="userSpaceOnUse">
<stop stop-color="#F3C57A"/>
<stop offset="0.49" stop-color="#F39369"/>
<stop offset="1" stop-color="#E94867"/>
</linearGradient>
</defs>
</svg>
